module gobasic

go 1.21.5

require (
	github.com/go-sql-driver/mysql v1.7.1
	gorm.io/driver/sqlserver v1.5.2
	gorm.io/gorm v1.25.5
)

require (
	github.com/KyleBanks/depth v1.2.1 // indirect
	github.com/PuerkitoBio/purell v1.2.1 // indirect
	github.com/PuerkitoBio/urlesc v0.0.0-20170810143723-de5bf2ad4578 // indirect
	github.com/cpuguy83/go-md2man/v2 v2.0.0-20190314233015-f79a8a8ca69d // indirect
	github.com/ghodss/yaml v1.0.0 // indirect
	github.com/go-openapi/jsonpointer v0.20.2 // indirect
	github.com/go-openapi/jsonreference v0.20.4 // indirect
	github.com/go-openapi/spec v0.20.13 // indirect
	github.com/go-openapi/swag v0.22.6 // indirect
	github.com/go-playground/locales v0.14.1 // indirect
	github.com/go-playground/universal-translator v0.18.1 // indirect
	github.com/golang-jwt/jwt v3.2.2+incompatible // indirect
	github.com/golang-sql/civil v0.0.0-20220223132316-b832511892a9 // indirect
	github.com/golang-sql/sqlexp v0.1.0 // indirect
	github.com/gorilla/mux v1.8.1 // indirect
	github.com/jinzhu/inflection v1.0.0 // indirect
	github.com/jinzhu/now v1.1.5 // indirect
	github.com/joho/godotenv v1.5.1 // indirect
	github.com/josharian/intern v1.0.0 // indirect
	github.com/labstack/echo/v4 v4.11.4 // indirect
	github.com/labstack/gommon v0.4.2 // indirect
	github.com/leodido/go-urn v1.2.4 // indirect
	github.com/mailru/easyjson v0.7.7 // indirect
	github.com/mattn/go-colorable v0.1.13 // indirect
	github.com/mattn/go-isatty v0.0.20 // indirect
	github.com/microsoft/go-mssqldb v1.6.0 // indirect
	github.com/russross/blackfriday/v2 v2.0.1 // indirect
	github.com/shurcooL/sanitized_anchor_name v1.0.0 // indirect
	github.com/swaggo/echo-swagger v1.4.1 // indirect
	github.com/swaggo/files/v2 v2.0.0 // indirect
	github.com/swaggo/swag v1.16.2 // indirect
	github.com/urfave/cli/v2 v2.3.0 // indirect
	github.com/valyala/bytebufferpool v1.0.0 // indirect
	github.com/valyala/fasttemplate v1.2.2 // indirect
	golang.org/x/crypto v0.17.0 // indirect
	golang.org/x/net v0.19.0 // indirect
	golang.org/x/sys v0.15.0 // indirect
	golang.org/x/text v0.14.0 // indirect
	golang.org/x/time v0.5.0 // indirect
	golang.org/x/tools v0.16.1 // indirect
	gopkg.in/go-playground/validator.v9 v9.31.0 // indirect
	gopkg.in/yaml.v2 v2.4.0 // indirect
	gopkg.in/yaml.v3 v3.0.1 // indirect
	gorm.io/driver/mysql v1.5.2 // indirect
	sigs.k8s.io/yaml v1.3.0 // indirect
)
