{
    "swagger": "2.0",
    "info": {
        "contact": {}
    },
    "paths": {
        "/dog": {
            "get": {
                "description": "get all Dog",
                "consumes": [
                    "application/json"
                ],
                "produces": [
                    "application/json"
                ],
                "summary": "Show All Dog",
                "operationId": "get-string-by-int",
                "responses": {
                    "200": {
                        "description": "OK",
                        "schema": {
                            "$ref": "#/definitions/model.Dog"
                        },
                        "headers": {
                            "Token": {
                                "type": "string",
                                "description": "qwerty"
                            }
                        }
                    },
                    "400": {
                        "description": "Not found"
                    },
                    "404": {
                        "description": "Not found"
                    }
                }
            },
            "post": {
                "description": "Create Dog",
                "consumes": [
                    "application/json"
                ],
                "produces": [
                    "application/json"
                ],
                "summary": "Create Dog",
                "operationId": "creste-dog",
                "parameters": [
                    {
                        "description": "Dog Data",
                        "name": "dog",
                        "in": "body",
                        "required": true,
                        "schema": {
                            "$ref": "#/definitions/model.Dog"
                        }
                    }
                ],
                "responses": {
                    "200": {
                        "description": "OK",
                        "schema": {
                            "$ref": "#/definitions/model.Dog"
                        },
                        "headers": {
                            "Token": {
                                "type": "string",
                                "description": "qwerty"
                            }
                        }
                    },
                    "400": {
                        "description": "Not found"
                    },
                    "404": {
                        "description": "Not found"
                    }
                }
            }
        },
        "/dog/{id}": {
            "get": {
                "description": "get  Dog By ID",
                "consumes": [
                    "application/json"
                ],
                "produces": [
                    "application/json"
                ],
                "summary": "Show  Dog By ID",
                "operationId": "get-string-by-id",
                "parameters": [
                    {
                        "type": "integer",
                        "description": "Dog ID",
                        "name": "id",
                        "in": "path",
                        "required": true
                    }
                ],
                "responses": {
                    "200": {
                        "description": "OK",
                        "schema": {
                            "$ref": "#/definitions/model.Dog"
                        },
                        "headers": {
                            "Token": {
                                "type": "string",
                                "description": "qwerty"
                            }
                        }
                    },
                    "400": {
                        "description": "Not found"
                    },
                    "404": {
                        "description": "Not found"
                    }
                }
            },
            "delete": {
                "description": "delete Dog Object by ID",
                "consumes": [
                    "application/json"
                ],
                "produces": [
                    "application/json"
                ],
                "summary": "Delete Dog",
                "operationId": "delete-dog-by-id",
                "parameters": [
                    {
                        "type": "integer",
                        "description": "Dog ID",
                        "name": "id",
                        "in": "path",
                        "required": true
                    }
                ],
                "responses": {
                    "200": {
                        "description": "OK",
                        "schema": {
                            "$ref": "#/definitions/model.Dog"
                        },
                        "headers": {
                            "Token": {
                                "type": "string",
                                "description": "qwerty"
                            }
                        }
                    },
                    "400": {
                        "description": "Not found"
                    },
                    "404": {
                        "description": "Not found"
                    }
                }
            },
            "patch": {
                "description": "update Dog Object by ID",
                "consumes": [
                    "application/json"
                ],
                "produces": [
                    "application/json"
                ],
                "summary": "Update Dog",
                "operationId": "update-dog-by-id",
                "parameters": [
                    {
                        "type": "integer",
                        "description": "Dog ID",
                        "name": "id",
                        "in": "path",
                        "required": true
                    },
                    {
                        "description": "Dog Data",
                        "name": "dog",
                        "in": "body",
                        "required": true,
                        "schema": {
                            "$ref": "#/definitions/model.Dog"
                        }
                    }
                ],
                "responses": {
                    "200": {
                        "description": "OK",
                        "schema": {
                            "$ref": "#/definitions/model.Dog"
                        },
                        "headers": {
                            "Token": {
                                "type": "string",
                                "description": "qwerty"
                            }
                        }
                    },
                    "400": {
                        "description": "Not found"
                    },
                    "404": {
                        "description": "Not found"
                    }
                }
            }
        },
        "/dog/{spot}": {
            "get": {
                "description": "get  Dog By Spot",
                "consumes": [
                    "application/json"
                ],
                "produces": [
                    "application/json"
                ],
                "summary": "Show  Dog By Spot",
                "operationId": "get-string-by-spot",
                "parameters": [
                    {
                        "type": "string",
                        "description": "Dog Spot",
                        "name": "spot",
                        "in": "path",
                        "required": true
                    }
                ],
                "responses": {
                    "200": {
                        "description": "OK",
                        "schema": {
                            "$ref": "#/definitions/model.Dog"
                        },
                        "headers": {
                            "Token": {
                                "type": "string",
                                "description": "qwerty"
                            }
                        }
                    },
                    "400": {
                        "description": "Not found"
                    },
                    "404": {
                        "description": "Not found"
                    }
                }
            }
        }
    },
    "definitions": {
        "model.Dog": {
            "type": "object",
            "properties": {
                "breed": {
                    "type": "string"
                },
                "hometown": {
                    "type": "string"
                },
                "id": {
                    "type": "integer"
                },
                "spot": {
                    "type": "string"
                }
            }
        }
    }
}